<?xml version="1.0" encoding="UTF-8" standalone="no"?>
<svg
   xmlns:dc="http://purl.org/dc/elements/1.1/"
   xmlns:cc="http://creativecommons.org/ns#"
   xmlns:rdf="http://www.w3.org/1999/02/22-rdf-syntax-ns#"
   xmlns:svg="http://www.w3.org/2000/svg"
   xmlns="http://www.w3.org/2000/svg"
   xmlns:xlink="http://www.w3.org/1999/xlink"
   xmlns:sodipodi="http://sodipodi.sourceforge.net/DTD/sodipodi-0.dtd"
   xmlns:inkscape="http://www.inkscape.org/namespaces/inkscape"
   width="24"
   height="24"
   viewBox="0 0 24 24"
   version="1.1"
   id="svg3881"
   sodipodi:docname="homeWhite2.svg"
   inkscape:version="0.92.4 (unknown)">
  <metadata
     id="metadata3885">
    <rdf:RDF>
      <cc:Work
         rdf:about="">
        <dc:format>image/svg+xml</dc:format>
        <dc:type
           rdf:resource="http://purl.org/dc/dcmitype/StillImage" />
        <dc:title></dc:title>
      </cc:Work>
    </rdf:RDF>
  </metadata>
  <sodipodi:namedview
     pagecolor="#ffffff"
     bordercolor="#666666"
     borderopacity="1"
     objecttolerance="10"
     gridtolerance="10"
     guidetolerance="10"
     inkscape:pageopacity="0"
     inkscape:pageshadow="2"
     inkscape:window-width="1299"
     inkscape:window-height="713"
     id="namedview3883"
     showgrid="false"
     inkscape:zoom="16"
     inkscape:cx="11.061858"
     inkscape:cy="13.651671"
     inkscape:window-x="67"
     inkscape:window-y="27"
     inkscape:window-maximized="1"
     inkscape:current-layer="svg3881" />
  <defs
     id="defs3855">
    <path
       id="a"
       d="M0 0h2v6H0z" />
    <path
       id="c"
       d="M14 19h3v-8a1 1 0 0 1 1-1h.586L11 2.414 3.414 10H4a1 1 0 0 1 1 1v8h3v-6a2 2 0 0 1 2-2h2a2 2 0 0 1 2 2v6zM3.001 12h-2c-.89 0-1.336-1.077-.706-1.707l9.998-10a1 1 0 0 1 1.414 0l9.998 10c.63.63.184 1.707-.707 1.707h-2v8a1 1 0 0 1-1 1H4.002a1 1 0 0 1-1-1v-8zM10 13v6h2v-6h-2z" />
  </defs>
  <g
     fill="none"
     fill-rule="evenodd"
     id="g3879">
    <g
       transform="translate(11 14)"
       id="g3866">
      <mask
         id="b"
         fill="#fff">
        <use
           xlink:href="#a"
           id="use3857" />
      </mask>
      <use
         fill="#D8D8D8"
         xlink:href="#a"
         id="use3860" />
      <g
         fill="#916BFF"
         fill-opacity=".5"
         mask="url(#b)"
         id="g3864">
        <path
           d="M-11-14h24v24h-24z"
           id="path3862" />
      </g>
    </g>
    <g
       transform="translate(1 1)"
       id="g3877">
      <mask
         id="d"
         fill="#fff">
        <use
           xlink:href="#c"
           id="use3868" />
      </mask>
      <use
         fill="#000"
         fill-rule="nonzero"
         xlink:href="#c"
         id="use3871" />
      <g
         fill="#7461FC"
         mask="url(#d)"
         id="g3875">
        <path
           d="M-1-1h24v24H-1z"
           id="path3873" />
      </g>
    </g>
  </g>
  <path
     style="fill:#656273;stroke-width:0.04511278;fill-opacity:1"
     d="M 4.7079285,21.923778 C 4.454869,21.83346 4.3258107,21.735044 4.1886368,21.527784 L 4.0646617,21.340466 4.0421053,17.164218 4.0195489,12.98797 2.8466165,12.965414 C 1.5892507,12.941234 1.5310332,12.930752 1.3043038,12.687745 1.1564096,12.529233 1.0215304,12.199036 1.0215304,11.995489 c 0,-0.41167 -0.10072047,-0.303095 5.2443337,-5.6533027 2.9263398,-2.9291611 5.1476039,-5.1178729 5.2649629,-5.1878067 0.249979,-0.1489604 0.652323,-0.1650212 0.902256,-0.036016 0.206308,0.106488 10.342066,10.2422454 10.448554,10.4485534 0.05109,0.09897 0.08214,0.258901 0.08323,0.428572 0.0021,0.335783 -0.159383,0.640563 -0.436871,0.824318 l -0.185817,0.12305 -1.187629,0.01338 -1.187629,0.01338 v 4.126208 c 0,4.11875 -1.8e-4,4.126578 -0.09629,4.331052 -0.106363,0.226278 -0.310478,0.404456 -0.569034,0.496725 -0.250516,0.0894 -14.343194,0.08957 -14.5936665,1.81e-4 z m 4.2969234,-4.932049 c 2.255e-4,-1.868831 0.018152,-3.121053 0.047289,-3.300625 0.1233022,-0.759934 0.7164951,-1.410598 1.4618481,-1.60348 0.389036,-0.100673 2.512768,-0.0998 2.956901,0.0012 0.569896,0.12962 1.048873,0.528052 1.324941,1.102138 l 0.141011,0.293233 0.01242,3.259399 0.01242,3.259398 h 1.532 1.532 l 0.01197,-4.164965 0.01197,-4.164965 0.124445,-0.188033 c 0.06845,-0.103418 0.207688,-0.24312 0.309428,-0.310449 0.162366,-0.107448 0.242345,-0.125421 0.654173,-0.147001 L 19.606861,11.003006 15.794409,7.1910767 11.981955,3.3791468 8.1924817,7.1684192 c -2.084211,2.0841014 -3.7894742,3.8026428 -3.7894742,3.8189818 0,0.01634 0.199608,0.03669 0.4435733,0.04521 0.4004685,0.014 0.4649372,0.02872 0.6634186,0.15154 0.1599262,0.09896 0.254202,0.201801 0.3459004,0.377332 l 0.1260551,0.241297 v 4.100112 4.100112 h 1.5112782 1.5112782 l 3.609e-4,-3.011279 z m 4.0146971,-0.01128 v -3.022556 h -1.015038 -1.015037 v 3.022556 3.022557 h 1.015037 1.015038 z"
     id="path3887"
     inkscape:connector-curvature="0" />
  <path
     style="fill:#656273;fill-opacity:1;stroke-width:0.0056391"
     d="M 6.1188432,9.25028 C 6.2925126,9.0758204 7.4115818,7.9554727 8.6056637,6.7606183 10.77321,4.5916701 10.776758,4.5881559 10.799278,4.5881559 h 0.02256 L 8.3321782,7.0778176 C 5.9656278,9.4443725 5.8415463,9.5674792 5.822801,9.5674792 c -0.019026,0 -0.0086,-0.011172 0.2960422,-0.3171992 z"
     id="path4696"
     inkscape:connector-curvature="0" />
  <path
     style="fill:#656273;fill-opacity:1;stroke-width:0.00390625"
     d="m 4.410882,10.991002 c -0.00771,-0.0048 -0.00434,-0.0086 0.143355,-0.16042 0.249115,-0.256037 1.2703724,-1.2871799 1.2703724,-1.282669 0,8.387e-4 -0.00213,0.00494 -0.00474,0.00911 -0.0026,0.00417 -0.00348,0.00884 -0.00195,0.010369 0.00534,0.00534 0.023809,-0.00859 0.06991,-0.052756 0.025527,-0.024455 0.047159,-0.043717 0.048072,-0.042804 9.129e-4,9.129e-4 -0.3406017,0.3438811 -0.7589215,0.762152 -0.5731161,0.573049 -0.7619428,0.759636 -0.7661055,0.757021 z"
     id="path4698"
     inkscape:connector-curvature="0" />
  <path
     style="fill:#656273;fill-opacity:1;stroke-width:0.00390625"
     d="m 4.4139466,10.979996 c 0.00416,-0.0077 0.133399,-0.141577 0.2932827,-0.303711 0.436924,-0.443075 1.1071172,-1.1186617 1.109103,-1.1180287 0.00133,4.238e-4 0.023839,-0.022065 0.050021,-0.049975 0.026182,-0.02791 0.4480568,-0.4521386 0.9375,-0.9427295 l 0.8898967,-0.891984 0.018907,0.00136 0.018907,0.00136 -0.8626569,0.8613967 c -0.8542464,0.8529956 -1.0196256,1.015738 -1.0423446,1.0257226 -0.00695,0.00305 -0.00899,0.00521 -0.00502,0.0053 0.00369,8.4e-5 0.012973,-0.00535 0.020639,-0.012086 0.00767,-0.00673 0.014545,-0.011565 0.015285,-0.010742 0.00405,0.0045 -1.4345771,1.4409499 -1.443134,1.4409499 -0.00266,0 -0.0028,-0.0024 -3.871e-4,-0.0068 z"
     id="path4700"
     inkscape:connector-curvature="0" />
  <path
     style="fill:#656273;fill-opacity:1;stroke-width:0.00390625"
     d=""
     id="path4702"
     inkscape:connector-curvature="0" />
  <path
     style="fill:#656273;fill-opacity:1;stroke-width:0.00390625"
     d=""
     id="path4704"
     inkscape:connector-curvature="0" />
  <path
     style="fill:#656273;fill-opacity:1;stroke-width:0.00390625"
     d="M 2.4574219,10.647191 V 10.170832 L 2.7083984,9.9158848 C 3.0374727,9.5816039 3.4313693,9.1851321 4.2591486,8.3549959 L 4.9378802,7.6743318 H 6.3116626 7.6854449 L 7.0118172,8.3491365 c -1.3266053,1.328923 -2.5468981,2.5612825 -2.5995318,2.6252355 -0.00822,0.01 -0.00959,0.01399 -0.006,0.01758 0.00348,0.0035 0.081514,0.0052 0.3101159,0.0067 l 0.3054702,0.002 -0.2848307,9.18e-4 c -0.1566569,5.05e-4 -0.2840983,0.0016 -0.2832032,0.0025 0.0076,0.0072 0.222676,0.02312 0.4274089,0.03162 0.1752993,0.0073 0.2336921,0.01146 0.3034786,0.02173 0.078106,0.01149 0.1336595,0.02716 0.190662,0.05377 l 0.025391,0.01185 -1.4716796,2.89e-4 -1.4716797,2.9e-4 z"
     id="path4706"
     inkscape:connector-curvature="0" />
  <path
     style="fill:#656273;fill-opacity:1;stroke-width:0.00390625"
     d="M 5.9027434,11.648038 C 5.8023032,11.455616 5.7677072,11.403026 5.6898437,11.324405 5.6219725,11.255875 5.5617312,11.211098 5.4547874,11.149693 5.2997943,11.060698 5.2280777,11.046295 4.8675781,11.031759 c -0.1444297,-0.0058 -0.2203148,-0.01029 -0.3007812,-0.0177 -0.022559,-0.0021 -0.04541,-0.0039 -0.050781,-0.004 l -0.00977,-2.51e-4 0.00974,-0.0039 c 0.00626,-0.0025 0.1128435,-0.0034 0.2988281,-0.0024 0.250834,0.0013 0.2945184,0.0024 0.3301063,0.0082 0.2270028,0.03737 0.4163549,0.134958 0.5704568,0.293995 0.022638,0.02336 0.051129,0.05489 0.063314,0.07005 0.060679,0.07553 0.1237345,0.186426 0.1568274,0.275824 0.014517,0.03922 0.039315,0.123911 0.036935,0.126146 -7.487e-4,7.02e-4 -0.032119,-0.05765 -0.069712,-0.129667 z"
     id="path4708"
     inkscape:connector-curvature="0" />
  <path
     style="fill:#656273;fill-opacity:1;stroke-width:0.00390625"
     d="m 5.9852546,12.81398 c 3.412e-4,-0.674063 0.00171,-0.96051 0.00452,-0.948242 0.00269,0.01174 0.0045,0.332591 0.00545,0.96582 0.00126,0.846358 7.755e-4,0.948243 -0.00452,0.948243 -0.0053,0 -0.00588,-0.104142 -0.00545,-0.965821 z"
     id="path4710"
     inkscape:connector-curvature="0" />
  <path
     style="fill:#656273;fill-opacity:1;stroke-width:0.00390625"
     d="m 5.9808594,12.801285 c 0,-0.5389 0.00101,-0.978813 0.00223,-0.977584 0.00271,0.0027 0.00239,1.952777 -3.211e-4,1.955489 -0.00105,0.0011 -0.00191,-0.439005 -0.00191,-0.977905 z"
     id="path4712"
     inkscape:connector-curvature="0" />
  <path
     style="fill:#656273;fill-opacity:1;stroke-width:0.00390625"
     d="m 4.490625,11.006092 c -0.015475,-0.0025 -0.015428,-0.0025 0.00488,-0.0031 0.019955,-5.39e-4 0.025559,9.17e-4 0.015625,0.0041 -0.00269,8.5e-4 -0.011914,4.08e-4 -0.020508,-9.81e-4 z"
     id="path4714"
     inkscape:connector-curvature="0" />
  <path
     style="fill:#656273;fill-opacity:1;stroke-width:0.00390625;paint-order:fill markers stroke"
     d=""
     id="path4716"
     inkscape:connector-curvature="0" />
  <path
     style="fill:#656273;fill-opacity:1;stroke-width:0.00390625;paint-order:fill markers stroke"
     d="m 4.0231639,13.385416 c -9.055e-4,-0.216911 -0.00263,-0.39537 -0.00384,-0.396576 -0.00236,-0.0024 -0.1785306,-0.0064 -0.6790915,-0.01549 -0.1750977,-0.0032 -0.3609864,-0.0069 -0.413086,-0.0083 l -0.094727,-0.0025 v -1.316001 -1.315967 h 1.103945 1.1039426 l -0.09906,0.101352 c -0.054483,0.05574 -0.1866859,0.190655 -0.2937845,0.299804 -0.2302311,0.234639 -0.2478002,0.253584 -0.2412508,0.260136 0.00357,0.0036 0.078877,0.0052 0.3101919,0.0068 l 0.3054712,0.0021 -0.2828776,8.45e-4 c -0.1555827,4.65e-4 -0.282113,0.0016 -0.2811785,0.0025 0.00694,0.0069 0.2253054,0.02287 0.4331967,0.03161 0.3550055,0.01492 0.4213951,0.03035 0.6015625,0.139873 0.13822,0.08402 0.2223719,0.16242 0.2962883,0.276037 0.032281,0.04962 0.042942,0.06322 0.026018,0.0332 -0.06658,-0.118105 -0.1789062,-0.228217 -0.3182145,-0.311942 -0.1044043,-0.06275 -0.1612372,-0.08826 -0.2364763,-0.106171 -0.079411,-0.0189 -0.1530091,-0.0257 -0.4004283,-0.03698 -0.1514406,-0.0069 -0.3051971,-0.01655 -0.3359375,-0.02108 -0.00537,-7.9e-4 0.1291016,-8.61e-4 0.2988281,-1.57e-4 0.3023872,0.0013 0.324973,0.0018 0.3388672,0.0075 0.00376,0.0016 0.00947,0.0018 0.012695,5.91e-4 0.00322,-0.0012 0.00586,-3.41e-4 0.00586,0.002 0,0.0024 0.0042,0.0034 0.00977,0.0024 0.00537,-0.001 0.00977,-1.48e-4 0.00977,0.002 0,0.0021 0.00439,0.003 0.00977,0.002 0.00537,-0.001 0.00977,-6.54e-4 0.00977,8.27e-4 0,0.0037 0.038917,0.0124 0.043321,0.0097 0.00195,-0.0012 0.00355,-5.66e-4 0.00355,0.0014 0,0.002 0.010986,0.0067 0.024414,0.01046 0.0656,0.01836 0.1650382,0.06345 0.2338967,0.106042 0.080365,0.04971 0.1757422,0.132741 0.2416265,0.210344 0.069459,0.08181 0.1429156,0.214031 0.1779997,0.320387 0.010631,0.03223 0.02046,0.05912 0.021844,0.05976 0.00138,6.4e-4 0.00159,0.0047 4.609e-4,0.009 -0.00149,0.0057 -0.013363,-0.01357 -0.042901,-0.06952 -0.062074,-0.11759 -0.091157,-0.170725 -0.095804,-0.175035 -0.00232,-0.0021 0.00109,0.0058 0.00756,0.01758 0.00648,0.01182 0.037752,0.07158 0.069502,0.132813 0.031751,0.06123 0.061667,0.117539 0.066481,0.125131 l 0.00875,0.0138 0.00279,0.482291 c 0.00154,0.26526 0.00151,0.711246 -6.87e-5,0.99108 L 5.97972,13.779849 H 5.0022617 4.0248102 Z"
     id="path4718"
     inkscape:connector-curvature="0" />
  <path
     style="fill:#656273;fill-opacity:1;stroke-width:0.00390625;paint-order:fill markers stroke"
     d="m 5.9862569,11.965347 c 7.7e-6,-0.02578 6.399e-4,-0.03582 0.0014,-0.02231 7.649e-4,0.01351 7.586e-4,0.03461 -1.41e-5,0.04687 -7.727e-4,0.01227 -0.0014,0.0012 -0.00139,-0.02457 z"
     id="path4720"
     inkscape:connector-curvature="0" />
  <path
     style="fill:#656273;fill-opacity:1;stroke-width:0.00390625;paint-order:fill markers stroke"
     d="m 5.9818933,11.949722 1.151e-4,-0.0625 0.00297,0.04423 c 0.00163,0.02433 0.00158,0.05245 -1.15e-4,0.0625 -0.00212,0.01257 -0.00305,-0.0012 -0.00297,-0.04423 z"
     id="path4722"
     inkscape:connector-curvature="0" />
  <path
     style="fill:#656273;fill-opacity:1;stroke-width:0.0078125;paint-order:fill markers stroke"
     d="m 4.0370641,15.46773 c -0.0027,-0.284668 -0.00713,-0.957988 -0.00986,-1.496266 -0.00273,-0.538279 -0.00738,-0.980182 -0.010327,-0.982006 -0.00295,-0.0018 -0.2811043,-0.0088 -0.6181153,-0.01547 C 2.0470547,12.947188 1.8642172,12.939248 1.661926,12.898558 1.51716,12.869438 1.442816,12.826448 1.3273145,12.705073 1.1529074,12.521804 1.0239906,12.205868 1.0244294,11.9628 1.0247357,11.793097 1.0724602,11.690462 1.259027,11.458281 1.4920676,11.168264 2.0159917,10.616498 3.0867937,9.5333846 L 3.5282,9.0869035 4.9031757,9.086887 6.2781515,9.0868706 5.809417,9.5575737 C 5.551613,9.8164604 5.2176396,10.153141 5.0672537,10.305752 4.9168679,10.458364 5.1295671,10.246086 5.5399187,9.8340237 6.0942442,9.2773873 6.2898115,9.0855852 6.3007931,9.0877982 c 0.011212,0.00226 -0.04349,0.060441 -0.2265625,0.2409712 -0.1327388,0.1308959 -0.2442412,0.2371564 -0.2477832,0.2361345 -0.00354,-0.00102 -0.00446,0.00134 -0.00205,0.00524 0.00442,0.00715 -1.3796759,1.3955251 -1.3914468,1.3957481 -0.010459,1.99e-4 -0.025843,0.01203 -0.025843,0.01987 0,0.004 0.011602,0.0074 0.025781,0.0074 0.01418,0 0.029364,0.0036 0.033742,0.008 0.010323,0.01032 0.058497,0.01141 0.3996744,0.009 0.1558792,-0.0011 0.2867539,6.2e-5 0.2908328,0.0026 0.00408,0.0025 0.017166,0.006 0.029083,0.0078 0.033149,0.0049 0.068071,0.01367 0.088074,0.02219 0.00645,0.0027 0.01875,0.0061 0.027344,0.0074 0.00859,0.0013 0.022656,0.0063 0.03125,0.01103 0.00859,0.0047 0.022656,0.0098 0.03125,0.01134 0.00859,0.0015 0.017383,0.0045 0.019531,0.0066 0.00215,0.0021 0.030273,0.01621 0.0625,0.03125 0.032227,0.01504 0.060352,0.02937 0.0625,0.03184 0.00215,0.0025 0.015881,0.01126 0.030517,0.01953 0.014636,0.0083 0.037392,0.0247 0.050569,0.03652 0.013177,0.01182 0.026017,0.02148 0.028534,0.02148 0.013113,0 0.1718458,0.166271 0.1946977,0.203945 0.068037,0.112165 0.087351,0.146305 0.091245,0.161289 0.00251,0.0097 0.00829,0.01758 0.012835,0.01758 0.00455,0 0.00605,0.0022 0.00333,0.0049 -0.00271,0.0027 -8.345e-4,0.01238 0.00418,0.02148 0.00501,0.0091 0.010064,0.02222 0.011232,0.02916 0.00117,0.0069 0.00627,0.02275 0.011342,0.03516 0.013534,0.03311 0.016093,0.05171 0.00628,0.04565 -0.00463,-0.0029 -9.11e-4,0.0095 0.00826,0.02747 0.015558,0.0305 0.016838,0.04655 0.019226,0.241051 0.00556,0.452698 0.00932,1.621174 0.00475,1.477911 -0.00267,-0.08379 -0.00562,0.444434 -0.00655,1.173828 l -0.0017,1.326172 H 5.0096926 4.0419665 Z m 1.8856671,-3.787109 c -0.013014,-0.02578 -0.02542,-0.04687 -0.027569,-0.04687 -0.00215,0 0.00674,0.02109 0.019756,0.04687 0.013014,0.02578 0.02542,0.04687 0.027569,0.04687 0.00215,0 -0.00674,-0.02109 -0.019756,-0.04687 z m -0.070312,-0.132813 c -0.0046,-0.0086 -0.01012,-0.01563 -0.012269,-0.01563 -0.00215,0 -1.43e-4,0.007 0.00446,0.01563 0.0046,0.0086 0.01012,0.01563 0.012268,0.01563 0.00215,0 1.43e-4,-0.007 -0.00446,-0.01563 z m -0.054455,-0.09332 c -0.00447,-0.0084 -0.011991,-0.01758 -0.01671,-0.02049 -0.00472,-0.0029 -0.00254,0.0039 0.00485,0.01519 0.015638,0.02387 0.023735,0.02749 0.011863,0.0053 z m -0.039295,-0.05782 c 0,-0.0015 -0.00791,-0.0094 -0.017578,-0.01758 l -0.017578,-0.01488 0.014883,0.01758 c 0.013986,0.01652 0.020274,0.02113 0.020273,0.01488 z m -0.125,-0.125254 c 0,-0.0016 -0.00615,-0.0078 -0.013672,-0.01367 -0.012391,-0.0097 -0.012667,-0.0094 -0.00295,0.003 0.010206,0.01301 0.016622,0.01715 0.016622,0.01072 z m -0.03125,-0.02344 c 0,-0.0016 -0.00615,-0.0078 -0.013672,-0.01367 -0.012391,-0.0097 -0.012667,-0.0094 -0.00295,0.0029 0.010206,0.01301 0.016622,0.01715 0.016622,0.01072 z m -0.037505,-0.03025 c -0.00449,-0.0054 -0.019865,-0.01647 -0.03416,-0.02465 -0.030642,-0.01755 -0.025535,-0.01022 0.010753,0.01544 0.029534,0.02088 0.034952,0.02302 0.023407,0.0092 z m -0.064057,-0.04074 c 0,-0.002 -0.00791,-0.0075 -0.017578,-0.01215 -0.01688,-0.0082 -0.016976,-0.008 -0.00241,0.0036 0.01594,0.01277 0.019991,0.0145 0.019991,0.0085 z m -0.039063,-0.02344 c 0,-0.002 -0.00791,-0.0075 -0.017578,-0.01215 -0.01688,-0.0082 -0.016976,-0.008 -0.00241,0.0036 0.01594,0.01277 0.019991,0.0145 0.019991,0.0085 z m -0.1974284,-0.08703 c -0.0026,-0.0026 -0.00933,-0.0029 -0.014974,-6.16e-4 -0.00623,0.0025 -0.00438,0.0043 0.00472,0.0047 0.00824,3.39e-4 0.01285,-0.0015 0.010254,-0.0041 z m -0.039063,-0.0078 c -0.0026,-0.0026 -0.00933,-0.0029 -0.014974,-6.16e-4 -0.00623,0.0025 -0.00438,0.0043 0.00472,0.0047 0.00824,3.39e-4 0.01285,-0.0015 0.010254,-0.0041 z m -0.050618,-0.0083 c -0.00537,-0.0022 -0.01416,-0.0022 -0.019531,0 -0.00537,0.0022 -9.766e-4,0.0039 0.00977,0.0039 0.010742,0 0.015137,-0.0018 0.00977,-0.0039 z m -0.074219,-0.008 c -0.00752,-0.002 -0.019824,-0.002 -0.027344,0 -0.00752,0.002 -0.00137,0.0036 0.013672,0.0036 0.015039,0 0.021191,-0.0016 0.013672,-0.0036 z m -0.1210938,-0.0081 c -0.013965,-0.0017 -0.036816,-0.0017 -0.050781,0 -0.013965,0.0017 -0.00254,0.0032 0.025391,0.0032 0.02793,0 0.039356,-0.0014 0.025391,-0.0032 z m -0.1640625,-0.0078 c -0.013965,-0.0017 -0.036816,-0.0017 -0.050781,0 -0.013965,0.0017 -0.00254,0.0032 0.025391,0.0032 0.02793,0 0.039356,-0.0014 0.025391,-0.0032 z m -0.1405176,-0.0077 c -0.00961,-0.0019 -0.027187,-0.0019 -0.039063,-1.06e-4 -0.011875,0.0018 -0.00401,0.0033 0.017471,0.0034 0.021484,5.4e-5 0.031201,-0.0014 0.021592,-0.0033 z m -0.087998,-0.217157 c 0.066498,-0.0666 0.1191469,-0.121093 0.1169984,-0.121093 -0.00215,0 -0.058313,0.05449 -0.1248109,0.121093 -0.066498,0.0666 -0.1191469,0.121094 -0.1169984,0.121094 0.00215,0 0.058313,-0.05449 0.1248109,-0.121094 z"
     id="path4724"
     inkscape:connector-curvature="0" />
  <path
     style="fill:#656273;fill-opacity:1;stroke-width:0.0078125;paint-order:fill markers stroke"
     d="M 1.8153178,12.98014 C 1.7809428,12.97394 1.7222458,12.95863 1.6848802,12.94613 1.6136852,12.9223 1.4709913,12.85438 1.4778087,12.84756 c 0.00218,-0.0022 0.018878,0.0036 0.037106,0.01294 0.049672,0.02534 0.1655914,0.05228 0.2823258,0.06561 0.2035759,0.02325 0.4968697,0.03301 1.5493271,0.05156 0.2621094,0.0046 0.4958985,0.0093 0.5195313,0.01045 0.023633,0.0011 -0.4140625,0.0023 -0.9726563,0.0027 -0.853052,5.26e-4 -1.0256294,-0.0012 -1.078125,-0.01065 z"
     id="path4726"
     inkscape:connector-curvature="0" />
  <path
     style="fill:#656273;fill-opacity:1;stroke-width:0.0078125;paint-order:fill markers stroke"
     d="M 1.3139357,12.721636 C 1.1694299,12.581073 1.0741485,12.408948 1.0252634,12.200152 c -0.011809,-0.05044 -0.014523,-0.09191 -0.014061,-0.214844 5.187e-4,-0.138039 0.00246,-0.159366 0.020685,-0.227139 0.035558,-0.132232 0.097515,-0.258431 0.1782579,-0.363089 0.047478,-0.06154 2.2883845,-2.3082094 2.3022891,-2.3082094 0.00661,0 -0.191485,0.2049155 -0.4402073,0.4553677 -0.9027108,0.9089897 -1.4578748,1.4881467 -1.7196217,1.7939397 -0.1848086,0.215908 -0.2745996,0.347556 -0.310203,0.454807 -0.019415,0.05849 -0.021725,0.07659 -0.021804,0.170886 -9.95e-5,0.119093 0.01117,0.184985 0.053449,0.3125 0.058298,0.175828 0.1470353,0.330104 0.2538915,0.441408 0.035063,0.03652 0.060261,0.0664 0.055996,0.0664 -0.00426,0 -0.035765,-0.02725 -0.07,-0.06055 z"
     id="path4728"
     inkscape:connector-curvature="0" />
  <path
     style="fill:#656273;fill-opacity:1;stroke-width:0.0078125;paint-order:fill markers stroke"
     d="m 4.0380183,15.870074 c 2.453e-4,-0.639671 -0.018504,-2.874642 -0.024165,-2.880505 -0.00452,-0.0047 -0.4162429,-0.0068 -1.1058952,-0.0058 -0.8018164,0.0012 -1.1015437,-7.01e-4 -1.1092398,-0.0071 -0.0058,-0.0048 -0.015864,-0.0067 -0.022364,-0.0042 -0.0065,0.0025 -0.011818,7.2e-4 -0.011818,-0.0039 0,-0.0047 -0.00703,-0.0066 -0.015625,-0.0044 -0.00859,0.0022 -0.015625,0.0015 -0.015625,-0.0018 0,-0.0032 -0.014941,-0.01029 -0.033203,-0.01572 -0.043382,-0.0129 -0.147619,-0.05657 -0.1439029,-0.06029 0.00159,-0.0016 0.03242,0.0041 0.068513,0.0126 0.1449982,0.03422 0.3386687,0.04945 0.7999987,0.06292 0.1460938,0.0043 0.3271485,0.0073 0.4023438,0.0067 0.076481,-6.06e-4 -0.035388,-0.0055 -0.2539063,-0.01103 C 1.8287639,12.938589 1.6551777,12.920209 1.499939,12.843916 1.446423,12.817616 1.419993,12.797406 1.35427,12.732542 1.2458868,12.625576 1.1677976,12.502467 1.0998794,12.331493 c -0.028422,-0.07155 -0.069347,-0.226041 -0.070625,-0.266611 -5.353e-4,-0.01699 -0.00251,-0.02243 -0.00483,-0.01327 -0.0065,0.02567 0.013359,0.119475 0.046332,0.218876 0.052966,0.15967 0.1291413,0.300441 0.2189984,0.404707 0.049287,0.05719 0.044341,0.06724 -0.00571,0.01161 -0.092726,-0.103059 -0.1622247,-0.214206 -0.2071833,-0.33134 -0.014641,-0.03815 -0.029401,-0.07053 -0.032801,-0.07198 -0.0034,-0.0014 -0.00427,-0.0057 -0.00194,-0.0095 0.00233,-0.0038 -0.00178,-0.02896 -0.00913,-0.05597 -0.010522,-0.03864 -0.013502,-0.08409 -0.013975,-0.213173 -3.306e-4,-0.09023 0.00158,-0.151757 0.00425,-0.136718 l 0.00485,0.02734 0.00103,-0.02415 c 5.657e-4,-0.01328 0.00617,-0.04124 0.012461,-0.06213 0.00629,-0.02089 0.00992,-0.0395 0.00806,-0.04135 -0.00185,-0.0019 -0.00777,0.01309 -0.013152,0.03321 -0.00717,0.02682 -0.011152,0.03283 -0.014911,0.02254 -0.00282,-0.0077 -0.00165,-0.01839 0.00259,-0.02371 0.00425,-0.0053 0.00572,-0.01487 0.00328,-0.02123 -0.00244,-0.0064 -8.373e-4,-0.0138 0.00356,-0.01652 0.0044,-0.0027 0.00612,-0.0099 0.00381,-0.01587 -0.00231,-0.006 -0.00143,-0.01093 0.00195,-0.01093 0.00338,0 0.01244,-0.01998 0.020138,-0.04441 0.023517,-0.07461 0.065156,-0.158398 0.1186179,-0.238705 0.045628,-0.06854 0.1511394,-0.177074 1.0086014,-1.037516 0.5267036,-0.5285337 0.9594094,-0.959204 0.9615685,-0.9570449 0.00216,0.00216 -0.1609463,0.1702951 -0.3624564,0.3736357 -0.9228992,0.9312822 -1.433834,1.4788732 -1.6151285,1.7310032 -0.04792,0.06664 -0.1146041,0.178744 -0.1144363,0.192375 5.42e-5,0.0044 0.015057,-0.0194 0.033338,-0.0529 0.06326,-0.115908 0.2337013,-0.32922 0.4663309,-0.583627 0.2603577,-0.284732 0.6247951,-0.661987 1.3941163,-1.4431499 l 0.578772,-0.5876808 1.3749528,-2.098e-4 1.3749527,-2.099e-4 -0.242093,0.2421875 c -0.1331511,0.1332031 -0.2401264,0.2421875 -0.237723,0.2421875 0.0024,0 0.1130076,-0.1089844 0.2457872,-0.2421875 0.1600867,-0.1605975 0.2467684,-0.2421408 0.2573015,-0.2420488 0.01119,9.78e-5 -0.059391,0.075708 -0.2388427,0.2558594 C 5.920491,9.483515 5.6990066,9.7072516 5.5684033,9.840061 5.3456696,10.066557 4.6895908,10.71975 4.506175,10.897617 c -0.045419,0.04405 -0.085534,0.0774 -0.089143,0.07412 -0.00361,-0.0033 -0.00403,-0.0016 -9.429e-4,0.0038 0.00323,0.0056 0.00127,0.01018 -0.00461,0.01074 -0.00562,5.37e-4 0.00559,0.0046 0.024929,0.0091 0.020426,0.0047 0.176998,0.0092 0.3736777,0.01061 0.309672,0.0023 0.3439606,0.0039 0.4023438,0.01843 0.079016,0.01973 0.086775,0.0218 0.089213,0.02376 0.00107,8.66e-4 0.00547,0.0025 0.00977,0.0035 0.0043,0.0011 0.00957,0.0028 0.011719,0.0039 0.00215,0.0011 0.00654,0.0027 0.00977,0.0036 0.015861,0.0045 0.039795,0.01481 0.065253,0.02819 0.015479,0.0081 0.03042,0.01251 0.033203,0.0097 0.00278,-0.0028 0.00506,-7.51e-4 0.00506,0.0045 0,0.0053 0.00306,0.0077 0.0068,0.0054 0.00374,-0.0023 0.014707,0.0026 0.024365,0.01103 0.00966,0.0084 0.025054,0.01757 0.034212,0.02042 0.00916,0.0029 0.018408,0.0074 0.020556,0.01 0.0084,0.01034 0.054499,0.03996 0.062184,0.03996 0.00447,0 0.00813,0.0028 0.00813,0.0062 0,0.0034 0.016699,0.01897 0.037109,0.03456 0.046628,0.03563 0.1012041,0.08824 0.1281098,0.123518 0.011378,0.01492 0.027199,0.03415 0.035156,0.04275 0.00796,0.0086 0.019425,0.02523 0.025483,0.03698 0.00606,0.01174 0.016802,0.02756 0.023875,0.03516 0.00707,0.0076 0.013588,0.01642 0.014478,0.01961 0.00546,0.01961 0.028845,0.0606 0.03457,0.0606 0.00375,0 0.00465,0.0035 0.002,0.0078 -0.00266,0.0043 -0.00111,0.0078 0.00345,0.0078 0.00455,0 0.00739,0.0028 0.00632,0.0063 -0.00107,0.0035 0.00398,0.0184 0.011221,0.0332 0.011971,0.02446 0.021837,0.04858 0.02619,0.06403 9.083e-4,0.0032 0.00253,0.0076 0.0036,0.0098 0.00107,0.0021 0.00283,0.0074 0.00391,0.01172 0.00107,0.0043 0.00266,0.0087 0.00353,0.0098 0.00291,0.0036 0.00942,0.03302 0.011871,0.05361 0.00133,0.01122 0.00636,0.02776 0.011172,0.03674 0.00831,0.01553 0.00944,1.534804 0.00265,3.558085 l -0.00214,0.638672 H 5.0065895 4.0379741 l 4.69e-5,-0.115234 z M 3.2625835,12.971658 c -0.054785,-0.0013 -0.1444336,-0.0013 -0.1992188,0 -0.054785,0.0013 -0.00996,0.0024 0.099609,0.0024 0.1095703,0 0.1543945,-0.0011 0.09961,-0.0024 z m 1.5388997,-1.944195 c -0.0026,-0.0026 -0.00933,-0.0029 -0.014974,-6.16e-4 -0.00623,0.0025 -0.00438,0.0043 0.00472,0.0047 0.00824,3.39e-4 0.01285,-0.0015 0.010254,-0.0041 z M 4.6200053,10.766558 c 0.034173,-0.03438 0.060376,-0.0625 0.058227,-0.0625 -0.00215,0 -0.031866,0.02812 -0.06604,0.0625 -0.034173,0.03438 -0.060376,0.0625 -0.058227,0.0625 0.00215,0 0.031866,-0.02812 0.06604,-0.0625 z"
     id="path4730"
     inkscape:connector-curvature="0" />
  <path
     style="fill:#656273;fill-opacity:1;stroke-width:0.0078125;paint-order:fill markers stroke"
     d="m 4.0585728,19.428667 c -0.00257,-0.168652 -0.00655,-0.74082 -0.00884,-1.271484 -0.00862,-1.993842 -0.02741,-4.968642 -0.032015,-5.068359 l -0.00478,-0.103516 -1.0792777,-0.0016 c -1.1489571,-0.0017 -1.1192256,-0.0014 -1.1394506,-0.0099 -0.00731,-0.0031 -0.016982,-0.0033 -0.021484,-4.93e-4 -0.0045,0.0028 -0.00819,9.27e-4 -0.00819,-0.0041 0,-0.0053 -0.00651,-0.0075 -0.01525,-0.0052 -0.00839,0.0022 -0.016298,0.0015 -0.017578,-0.0015 -0.00128,-0.003 -0.030453,-0.01533 -0.064828,-0.0274 -0.034375,-0.01207 -0.074805,-0.02876 -0.089844,-0.03709 l -0.027344,-0.01514 0.027344,0.0051 c 0.060551,0.01136 0.064346,0.01075 0.019429,-0.0032 -0.025838,-0.008 -0.060994,-0.02192 -0.078125,-0.03095 l -0.031147,-0.01642 2.2493424,-3.45e-4 2.2493424,-3.45e-4 -0.0052,1.955078 c -0.00286,1.075293 -0.0052,2.627441 -0.0052,3.449218 l -5.8e-6,1.494141 H 5.0193582 4.0632421 Z M 3.2003453,12.971764 c -0.020266,-0.0016 -0.055422,-0.0016 -0.078125,-3.7e-5 -0.022703,0.0016 -0.00612,0.0029 0.036847,0.0029 0.042969,2.1e-5 0.061544,-0.0013 0.041278,-0.0029 z m -0.4178735,-0.0079 c -0.030956,-0.0015 -0.08369,-0.0015 -0.1171875,-1.9e-5 -0.033497,0.0015 -0.00817,0.0027 0.056283,0.0027 0.064453,1.1e-5 0.09186,-0.0012 0.060904,-0.0027 z m -0.2663772,-0.0078 c -0.039964,-0.0014 -0.1032447,-0.0014 -0.140625,1.5e-5 -0.03738,0.0014 -0.00468,0.0026 0.072661,0.0026 0.077344,-8e-6 0.1079277,-0.0012 0.067964,-0.0026 z m -0.2730424,-0.0078 c -0.026856,-0.0015 -0.070801,-0.0015 -0.097656,0 -0.026855,0.0015 -0.00488,0.0028 0.048828,0.0028 0.053711,0 0.075684,-0.0012 0.048828,-0.0028 z m -0.1875,-0.0077 c -0.018262,-0.0016 -0.048145,-0.0016 -0.066406,0 -0.018262,0.0016 -0.00332,0.003 0.033203,0.003 0.036523,0 0.051465,-0.0013 0.033203,-0.003 z m -0.1287663,-0.0077 c -0.01174,-0.0018 -0.032833,-0.0018 -0.046875,-8e-5 -0.014042,0.0017 -0.00444,0.0032 0.021344,0.0032 0.025781,4.4e-5 0.03727,-0.0014 0.025531,-0.0032 z m -0.089984,-0.0077 c -0.00967,-0.0019 -0.025488,-0.0019 -0.035156,0 -0.00967,0.0019 -0.00176,0.0034 0.017578,0.0034 0.019336,0 0.027246,-0.0015 0.017578,-0.0034 z m -0.091797,-0.01056 c -0.039575,-0.0082 -0.071551,-0.0078 -0.039063,4.49e-4 0.012891,0.0033 0.033984,0.006 0.046875,0.006 0.019706,2.2e-5 0.018462,-0.001 -0.00781,-0.0064 z m -0.072266,-0.01254 c -0.00537,-0.0022 -0.01416,-0.0022 -0.019531,0 -0.00537,0.0022 -9.766e-4,0.0039 0.00977,0.0039 0.010742,0 0.015137,-0.0018 0.00977,-0.0039 z"
     id="path4732"
     inkscape:connector-curvature="0" />
  <path
     style="fill:#656273;fill-opacity:1;stroke-width:0.0078125;paint-order:fill markers stroke"
     d="m 4.0079753,16.370074 c 7.369e-4,-1.981885 0.00375,-3.207872 0.00732,-2.982422 0.00334,0.210547 0.011512,1.474414 0.01816,2.808594 0.00665,1.334179 0.014346,2.676269 0.017108,2.982421 l 0.00502,0.556641 h -0.024433 -0.024433 z"
     id="path4734"
     inkscape:connector-curvature="0" />
  <path
     style="fill:#656273;fill-opacity:1;stroke-width:0.0078125;paint-order:fill markers stroke"
     d="m 7.2332866,21.972156 c -1.0963659,-0.0077 -2.1772138,-0.02623 -2.4101563,-0.04135 -0.097939,-0.0064 -0.116477,-0.01 -0.1773002,-0.03454 -0.1213354,-0.04902 -0.1759047,-0.08043 -0.2681763,-0.15435 -0.064301,-0.05151 -0.1273509,-0.128666 -0.2240851,-0.274213 l -0.081798,-0.123074 -0.00518,-0.352818 c -0.00285,-0.19405 -0.00596,-0.613276 -0.00693,-0.931614 -9.601e-4,-0.318337 -0.00281,-0.521666 -0.0041,-0.451842 l -0.00235,0.126953 h -0.023199 -0.023199 l -0.00204,0.642578 c -0.00112,0.353418 -0.0029,0.06689 -0.00395,-0.636719 l -0.00191,-1.279296 h 0.023379 0.023379 l 0.00207,0.490234 0.00207,0.490234 0.00189,-0.490234 0.00189,-0.490234 h 0.9608994 0.9608994 l 0.00199,0.771484 0.00199,0.771484 1.3496094,0.002 1.3496094,0.002 v 0.984353 0.984353 l -0.6035156,-0.0018 c -0.3319336,-0.001 -0.7107422,-0.0026 -0.8417969,-0.0035 z"
     id="path4736"
     inkscape:connector-curvature="0" />
  <path
     style="fill:#656273;fill-opacity:1;stroke-width:0.0078125;paint-order:fill markers stroke"
     d="M 4.0394578,21.253238 C 4.008026,21.133922 4.0067241,21.100289 4.0067241,20.40764 v -0.672332 h 0.02229 0.022291 l 0.00576,0.785753 c 0.00317,0.432164 0.00411,0.7874 0.0021,0.789414 -0.00201,0.002 -0.01088,-0.02374 -0.019704,-0.05724 z"
     id="path4738"
     inkscape:connector-curvature="0" />
  <path
     style="fill:#656273;fill-opacity:1;stroke-width:0.0078125;paint-order:fill markers stroke"
     d="m 5.911021,21.995074 c 0.5081054,-0.0011 1.3395507,-0.0011 1.8476562,0 0.5081055,0.0011 0.092383,0.002 -0.9238281,0.002 -1.0162109,0 -1.4319336,-9.07e-4 -0.9238281,-0.002 z"
     id="path4740"
     inkscape:connector-curvature="0" />
  <path
     style="fill:#656273;fill-opacity:1;stroke-width:0.0078125;paint-order:fill markers stroke"
     d="M 4.8231303,21.98014 C 4.6958857,21.95718 4.5556473,21.89873 4.4364736,21.818982 4.3554986,21.764792 4.2290498,21.636648 4.1766049,21.555621 c -0.045389,-0.07013 -0.094944,-0.163479 -0.089612,-0.168811 0.00174,-0.0017 0.034159,0.04344 0.072038,0.1004 0.1546769,0.2326 0.2580766,0.322446 0.4703001,0.408656 0.084235,0.03422 0.089005,0.03518 0.2103067,0.04252 0.2769909,0.01675 1.1972269,0.03038 3.1202108,0.04623 0.5803683,0.0048 0.3488618,0.006 -1.1757813,0.0064 -1.6217499,3.62e-4 -1.9075465,-0.0012 -1.9609375,-0.01085 z"
     id="path4742"
     inkscape:connector-curvature="0" />
  <path
     style="fill:#656273;fill-opacity:1;stroke-width:0.0078125;paint-order:fill markers stroke"
     d="m 6.3366464,21.995075 c 0.2739258,-0.0011 0.722168,-0.0011 0.9960938,0 0.2739257,0.0011 0.049805,0.0021 -0.4980469,0.0021 -0.5478516,0 -0.7719727,-9.32e-4 -0.4980469,-0.0021 z"
     id="path4746"
     inkscape:connector-curvature="0" />
  <path
     style="fill:#656273;fill-opacity:1;stroke-width:0.0078125;paint-order:fill markers stroke"
     d="m 7.1940683,21.977496 c -0.075353,-0.0044 -0.071218,-0.0048 0.050781,-0.0057 0.073047,-5.22e-4 0.1486328,0.0019 0.1679688,0.0053 0.042747,0.0076 -0.0902,0.0078 -0.21875,3.99e-4 z"
     id="path4748"
     inkscape:connector-curvature="0" />
  <path
     style="fill:#656273;fill-opacity:1;stroke-width:0.0078125;paint-order:fill markers stroke"
     d="m 4.8034433,21.977214 c -0.00645,-0.0034 -0.046875,-0.01698 -0.089844,-0.03007 -0.084384,-0.0257 -0.1808597,-0.06962 -0.2497375,-0.11368 -0.023777,-0.01521 -0.043231,-0.02613 -0.043231,-0.02427 0,0.0087 -0.1696503,-0.160755 -0.2026703,-0.20247 -0.040831,-0.05158 -0.114429,-0.17411 -0.1082774,-0.180262 0.00211,-0.0021 0.020235,0.02081 0.04027,0.05094 0.020035,0.03013 0.038226,0.05478 0.040425,0.05478 0.0022,0 -0.024196,-0.04208 -0.058656,-0.09352 l -0.062654,-0.09352 -0.00154,-0.150621 -0.00154,-0.150621 -0.00432,0.114613 c -0.00237,0.06304 -0.00695,0.117236 -0.010176,0.120443 -0.00322,0.0032 -0.00586,-0.0018 -0.00586,-0.0111 0,-0.0093 -0.00264,-0.01693 -0.00586,-0.01693 -0.00322,0 -0.00614,-0.0079 -0.00649,-0.01758 -3.447e-4,-0.0097 -0.00451,-0.04395 -0.00926,-0.07617 -0.013455,-0.09129 -0.018367,-0.479043 -0.020659,-1.630859 l -0.00212,-1.064453 h 0.022094 0.022094 l 0.00215,0.279296 0.00215,0.279297 0.00185,-0.279297 0.00185,-0.279296 H 5.018287 5.9831308 v 0.768242 0.768242 l 0.7864496,0.0052 c 0.4325473,0.0029 1.1128208,0.0052 1.5117187,0.0052 H 9.0065683 V 19.23531 18.461873 h 0.8828125 0.8828122 v 1.760623 1.760623 L 7.7936777,21.9833 C 6.1554941,21.983401 4.8098886,21.9807 4.8034433,21.9772 Z m 2.2050781,-0.0056 c -0.087012,-0.0013 -0.2293945,-0.0013 -0.3164062,0 -0.087012,0.0013 -0.01582,0.0023 0.1582031,0.0023 0.1740234,0 0.2452148,-0.001 0.1582031,-0.0023 z m -0.7226562,-0.0078 c -0.067676,-0.0013 -0.178418,-0.0013 -0.2460938,0 -0.067676,0.0013 -0.012305,0.0024 0.1230469,0.0024 0.1353515,0 0.1907226,-0.0011 0.1230469,-0.0024 z m -0.5824925,-0.0078 c -0.057187,-0.0013 -0.1485934,-0.0013 -0.203125,8e-6 -0.054531,0.0013 -0.00774,0.0024 0.1039768,0.0024 0.1117188,-4e-6 0.1563355,-0.0011 0.099148,-0.0024 z m -0.4136013,-0.0078 c -0.039746,-0.0014 -0.1047851,-0.0014 -0.1445312,0 -0.039746,0.0014 -0.00723,0.0026 0.072266,0.0026 0.079492,0 0.1120117,-0.0012 0.072265,-0.0026 z m -0.2734375,-0.0078 c -0.026855,-0.0015 -0.070801,-0.0015 -0.097656,0 -0.026855,0.0015 -0.00488,0.0028 0.048828,0.0028 0.053711,0 0.075684,-0.0012 0.048828,-0.0028 z m -0.183768,-0.0077 c -0.016209,-0.0017 -0.040818,-0.0017 -0.054687,6.3e-5 -0.013869,0.0017 -6.07e-4,0.0031 0.029471,0.0031 0.030078,-3.1e-5 0.041425,-0.0014 0.025216,-0.0031 z m -0.097482,-0.0073 c -0.00537,-0.0022 -0.01416,-0.0022 -0.019531,0 -0.00537,0.0022 -9.766e-4,0.0039 0.00977,0.0039 0.010742,0 0.015137,-0.0018 0.00977,-0.0039 z m -0.087891,-0.02608 c -0.00645,-0.0042 -0.015234,-0.0076 -0.019531,-0.0076 -0.0043,0 -0.00254,0.0034 0.00391,0.0076 0.00645,0.0042 0.015234,0.0076 0.019531,0.0076 0.0043,0 0.00254,-0.0034 -0.00391,-0.0076 z m -0.1062247,-0.0492 c -0.078697,-0.04077 -0.1390581,-0.08213 -0.2070442,-0.141883 -0.019759,-0.01736 -0.014485,-0.01095 0.011719,0.01425 0.026204,0.0252 0.063464,0.05684 0.0828,0.07031 0.039666,0.02763 0.1716441,0.09822 0.1835937,0.0982 0.0043,-7e-6 -0.027684,-0.0184 -0.071068,-0.04088 z M 4.2878183,21.654488 c 0,-0.0015 -0.00791,-0.0094 -0.017578,-0.01758 l -0.017578,-0.01488 0.014883,0.01758 c 0.013986,0.01652 0.020274,0.02114 0.020273,0.01488 z m -0.03125,-0.03932 c 0,-0.0016 -0.00615,-0.0078 -0.013672,-0.01367 -0.012391,-0.0097 -0.012667,-0.0094 -0.00295,0.0029 0.010206,0.01301 0.016621,0.01715 0.016621,0.01072 z m -0.023437,-0.03125 c 0,-0.0016 -0.00615,-0.0078 -0.013672,-0.01367 -0.012391,-0.0097 -0.012667,-0.0094 -0.00295,0.0029 0.010206,0.01301 0.016621,0.01715 0.016621,0.01072 z M 4.0573949,19.736656 c -0.00217,-0.0022 -0.00483,-0.0025 -0.0059,-6.97e-4 -0.00107,0.0018 -1.953e-4,0.295052 0.00195,0.651693 l 0.00391,0.648437 0.002,-0.647741 c 0.0011,-0.356257 2.203e-4,-0.649519 -0.00195,-0.651692 z"
     id="path4750"
     inkscape:connector-curvature="0" />
  <path
     style="fill:#656273;fill-opacity:1;stroke-width:0.0078125;paint-order:fill markers stroke"
     d="m 7.8228982,21.996113 c 0.00584,-0.0058 9.8888788,-0.0051 9.8947168,7.12e-4 0.0023,0.0023 -2.224212,0.0041 -4.947714,0.0041 -2.723503,0 -4.949654,-0.0022 -4.9470028,-0.0048 z"
     id="path4752"
     inkscape:connector-curvature="0" />
  <path
     style="fill:#656273;fill-opacity:1;stroke-width:0.0078125;paint-order:fill markers stroke"
     d="m 8.2643752,21.979457 -0.1660156,-0.0023 v -0.98422 -0.984219 h 0.4511719 0.4511718 l -0.00186,-1.712891 c -0.00121,-1.112689 8.005e-4,-1.708784 0.00574,-1.701172 0.00507,0.0078 0.00764,0.0085 0.00772,0.002 9.51e-5,-0.0078 0.203048,-0.0098 0.9884007,-0.0098 h 0.988282 v 1.710937 1.710938 h 1.015625 1.015625 v -1.710938 -1.710937 h 0.959722 0.959722 l 0.0051,0.111328 c 0.0028,0.06123 0.0051,0.417187 0.0051,0.791015 1.6e-5,0.373828 0.0024,1.093653 0.0052,1.59961 l 0.0052,0.919922 h 1.522147 1.522146 v 0.97541 0.97541 l -0.498047,0.0055 c -1.302102,0.01425 -3.110735,0.01981 -5.962891,0.01833 -1.7123048,-8.89e-4 -3.1879884,-0.0026 -3.279297,-0.0039 z"
     id="path4754"
     inkscape:connector-curvature="0" />
  <path
     style="fill:#656273;fill-opacity:1;stroke-width:0.0078125;paint-order:fill markers stroke"
     d="m 13.00461,18.293902 c 0,-1.132813 0.0026,-1.707031 0.0078,-1.707031 0.0052,0 0.0078,0.574218 0.0078,1.707031 0,1.132812 -0.0026,1.707031 -0.0078,1.707031 -0.0052,0 -0.0078,-0.574219 -0.0078,-1.707031 z"
     id="path4756"
     inkscape:connector-curvature="0" />
  <path
     style="fill:#656273;fill-opacity:1;stroke-width:0.0078125;paint-order:fill markers stroke"
     d="m 14.955095,17.526324 c -0.0029,-0.871192 -0.0069,-2.121875 -0.0091,-2.779297 -0.0026,-0.799024 -0.0013,-1.187542 0.0039,-1.171875 0.0043,0.01289 0.01564,0.0709 0.02524,0.128906 l 0.01746,0.105469 0.0022,2.65039 0.0022,2.650391 h -0.01838 -0.01837 z"
     id="path4760"
     inkscape:connector-curvature="0" />
  <path
     style="fill:#656273;fill-opacity:1;stroke-width:0.0078125;paint-order:fill markers stroke"
     d="m 11.503263,13.995074 c 0.276408,-0.0011 0.726408,-0.0011 1,10e-7 0.273592,0.0011 0.04744,0.0021 -0.50256,0.0021 -0.55,0 -0.773848,-9.31e-4 -0.49744,-0.0021 z"
     id="path4762"
     inkscape:connector-curvature="0" />
  <path
     style="fill:#656273;fill-opacity:1;stroke-width:0.0078125;paint-order:fill markers stroke"
     d="m 10.990926,16.538042 -0.0019,-2.576171 h 1.015625 1.015625 v 1.312038 c 0,0.866266 -0.0027,1.31368 -0.0078,1.316868 -0.0052,0.0032 -0.0078,-0.430909 -0.0078,-1.296414 v -1.301242 h -1.003895 -1.003894 l -0.002,2.560546 -0.002,2.560547 z"
     id="path4764"
     inkscape:connector-curvature="0" />
  <path
     style="fill:#656273;fill-opacity:1;stroke-width:0.0078125;paint-order:fill markers stroke"
     d="m 8.9987161,16.541949 c 0.00156,-2.089105 0.00265,-2.323448 0.00586,-1.25586 l 0.00394,1.3125 0.00555,-0.984375 c 0.00795,-1.409229 0.019936,-1.826143 0.057694,-2.007036 0.042294,-0.202628 0.1449449,-0.455854 0.2568389,-0.633589 0.1933726,-0.307157 0.4790597,-0.571298 0.789288,-0.729761 l 0.0625,-0.03192 1.822933,-1.7e-5 1.822934,-1.6e-5 0.07756,0.03984 c 0.163618,0.08404 0.329952,0.206855 0.470234,0.347191 0.1818,0.18187 0.292078,0.341926 0.435791,0.632503 0.05525,0.111719 0.104242,0.207519 0.108862,0.21289 0.0046,0.0054 0.0064,0.0098 0.0039,0.0098 -0.0025,0 -0.0012,0.0062 0.0029,0.01379 0.0045,0.0085 0.01061,0.881242 0.01572,2.255859 0.0046,1.233141 0.01037,2.499593 0.01285,2.814339 l 0.0045,0.572266 h -0.98091 -0.980911 l 0.002,-2.558594 0.002,-2.558594 h -1.000675 l -1.000676,1e-6 -0.0052,0.411441 c -0.0029,0.226293 -0.0052,1.37766 -0.0052,2.558594 v 2.147152 H 9.9928908 8.9967971 Z m 4.0137449,-0.614415 c -0.0053,-0.0053 -0.0079,0.243625 -0.0079,0.754128 0,0.419089 0.0026,0.764616 0.0059,0.767839 0.0032,0.0032 0.0068,-0.336134 0.0079,-0.754127 0.0013,-0.501416 -6.79e-4,-0.762659 -0.0059,-0.76784 z m -0.498086,-1.971522 c -0.280371,-0.0011 -0.73916,-0.0011 -1.019531,0 -0.280371,0.0011 -0.05098,0.0021 0.509766,0.0021 0.560742,0 0.790136,-9.3e-4 0.509765,-0.0021 z"
     id="path4766"
     inkscape:connector-curvature="0" />
  <path
     style="fill:#656273;fill-opacity:1;stroke-width:0.0078125;paint-order:fill markers stroke"
     d="m 9.0086149,14.516558 c 8.604e-4,-0.802037 -8.544e-4,-0.770947 0.055032,-0.997749 0.1529926,-0.620883 0.5999658,-1.133001 1.1986321,-1.373328 0.159916,-0.0642 0.328025,-0.10667 0.515768,-0.130312 0.119059,-0.01499 2.325167,-0.01508 2.445313,-10e-5 0.4762,0.05938 0.888373,0.264682 1.216346,0.605843 0.180297,0.187547 0.325437,0.412897 0.418858,0.650332 0.05233,0.133008 0.03822,0.116708 -0.04804,-0.05547 -0.124559,-0.248641 -0.214357,-0.38448 -0.366683,-0.554688 -0.286373,-0.319989 -0.705218,-0.546556 -1.103297,-0.596807 -0.283354,-0.03577 -0.699633,-0.05109 -1.382812,-0.05091 -0.699159,1.91e-4 -1.116825,0.01713 -1.355238,0.05495 -0.207796,0.03297 -0.458165,0.137822 -0.6778307,0.283875 -0.4032001,0.268083 -0.7053466,0.681795 -0.8298751,1.136299 -0.037904,0.138342 -0.049528,0.212341 -0.058404,0.371807 -0.00749,0.134563 -0.022918,0.824461 -0.026644,1.191406 -0.00105,0.103125 -0.00155,-0.137695 -0.00113,-0.535156 z"
     id="path4768"
     inkscape:connector-curvature="0" />
  <path
     style="fill:#656273;fill-opacity:1;stroke-width:0.0078125;paint-order:fill markers stroke"
     d="m 15.000618,18.602496 c 0,-0.766993 9.17e-4,-1.080762 0.002,-0.697266 0.0011,0.383496 0.0011,1.011035 0,1.394531 -0.0011,0.383496 -0.002,0.06973 -0.002,-0.697265 z"
     id="path4770"
     inkscape:connector-curvature="0" />
  <path
     style="fill:#656273;fill-opacity:1;stroke-width:0.0078125;paint-order:fill markers stroke"
     d="m 15.000484,19.481402 c 10e-7,-0.283594 9.77e-4,-0.398475 0.0022,-0.255291 0.0012,0.143183 0.0012,0.375215 -2e-6,0.515625 -0.0012,0.14041 -0.0022,0.02326 -0.0022,-0.260334 z"
     id="path4774"
     inkscape:connector-curvature="0" />
  <path
     style="fill:#656273;fill-opacity:1;stroke-width:0.0078125;paint-order:fill markers stroke"
     d="m 14.965479,19.596636 c -3.7e-5,-0.222363 -0.0023,-0.422754 -0.005,-0.445312 -0.0048,-0.04036 -0.0046,-0.04102 0.01569,-0.04102 h 0.02062 v 0.445313 c 0,0.440104 -1.83e-4,0.445312 -0.01563,0.445312 -0.01542,0 -0.01563,-0.0052 -0.01569,-0.404297 z"
     id="path4776"
     inkscape:connector-curvature="0" />
  <path
     style="fill:#656273;fill-opacity:1;stroke-width:0.0078125;paint-order:fill markers stroke"
     d="m 15.796777,21.984668 c 1.771531,-0.0098 3.048157,-0.02732 3.369045,-0.04633 0.126777,-0.0075 0.132911,-0.0087 0.20122,-0.03812 0.130457,-0.05624 0.234471,-0.126643 0.327905,-0.221936 0.0746,-0.07609 0.117931,-0.13557 0.164686,-0.226087 0.100026,-0.193646 0.101171,-0.220375 0.106566,-2.488372 0.0035,-1.488656 0.0058,-1.751953 0.01503,-1.751953 0.0092,0 0.01086,0.288843 0.01086,1.940382 0,2.114829 0.0025,1.991885 -0.04337,2.143255 -0.01068,0.03526 -0.03874,0.102689 -0.06234,0.149847 -0.141786,0.283233 -0.408465,0.481762 -0.720147,0.536115 -0.05826,0.01016 -0.345766,0.01148 -2.247429,0.01034 -1.998702,-0.0012 -2.092306,-0.0018 -1.122024,-0.0071 z"
     id="path4778"
     inkscape:connector-curvature="0" />
  <path
     style="fill:#656273;fill-opacity:1;stroke-width:0.0078125;paint-order:fill markers stroke"
     d="m 18.033835,18.026324 c 0.0028,-0.596192 0.0069,-2.059571 0.0092,-3.251953 0.0022,-1.192383 0.0062,-2.256739 0.0087,-2.365235 l 0.0046,-0.197265 h 2.441145 2.441145 l -0.0053,0.02539 c -0.01101,0.05281 -0.04403,0.141367 -0.07725,0.207171 -0.08373,0.165861 -0.186192,0.275028 -0.381429,0.406407 l -0.130413,0.08776 -0.576476,0.0074 c -0.317062,0.0041 -0.820813,0.0094 -1.119445,0.01184 -0.298633,0.0024 -0.575489,0.0064 -0.615235,0.0089 l -0.07226,0.0044 v 3.069584 3.069583 h -0.966053 -0.966053 z"
     id="path4780"
     inkscape:connector-curvature="0" />
  <path
     style="fill:#656273;fill-opacity:1;stroke-width:0.0078125;paint-order:fill markers stroke"
     d="m 17.999902,15.661089 v -3.449218 h 0.02439 0.02439 l -0.0048,0.697265 c -0.0027,0.383496 -0.0066,1.599024 -0.0088,2.701172 -0.0054,2.759771 -0.01059,3.5 -0.02442,3.5 -0.0091,0 -0.01074,-0.528574 -0.01074,-3.449219 z"
     id="path4782"
     inkscape:connector-curvature="0" />
  <path
     style="fill:#656273;fill-opacity:1;stroke-width:0.0078125;paint-order:fill markers stroke"
     d="m 19.990552,18.260699 c -0.0013,-0.467285 -5.81e-4,-1.842774 0.0016,-3.056641 l 0.004,-2.207031 0.0019,3.05664 c 10e-4,1.681153 3.15e-4,3.056641 -0.0016,3.056641 -0.0019,0 -0.0046,-0.382324 -0.0059,-0.849609 z"
     id="path4784"
     inkscape:connector-curvature="0" />
  <path
     style="fill:#656273;fill-opacity:1;stroke-width:0.0078125;paint-order:fill markers stroke"
     d="m 19.969565,15.123735 c -7.28e-4,-1.711208 0.0011,-2.147341 0.0089,-2.149741 0.0054,-0.0017 0.407031,-0.0068 0.892578,-0.0115 0.485547,-0.0047 1.007617,-0.01029 1.160156,-0.01248 0.285579,-0.0041 0.298548,-0.0024 0.18599,0.02482 -0.05268,0.01273 -0.14049,0.01412 -1.139115,0.01799 l -1.082031,0.0042 -0.0057,2.09449 c -0.0032,1.168658 -0.0088,2.113156 -0.01276,2.136719 -0.0042,0.02551 -0.0074,-0.80779 -0.0079,-2.104501 z"
     id="path4788"
     inkscape:connector-curvature="0" />
  <path
     style="fill:#656273;fill-opacity:1;stroke-width:0.0078125;paint-order:fill markers stroke"
     d="m 17.999921,12.12398 c 2.7e-5,-0.126958 0.01354,-0.281991 0.03047,-0.349609 l 0.01467,-0.05859 8.59e-4,0.248047 8.59e-4,0.248047 h -0.02344 -0.02344 z"
     id="path4790"
     inkscape:connector-curvature="0" />
  <path
     style="fill:#656273;fill-opacity:1;stroke-width:0.0078125;paint-order:fill markers stroke"
     d="m 18.093652,11.590517 c 0,-0.0111 0.04544,-0.09269 0.08469,-0.152083 0.135642,-0.205203 0.365508,-0.357952 0.624337,-0.41488 0.06967,-0.01532 0.102957,-0.01693 0.392531,-0.019 l 0.316406,-0.0023 -0.175781,0.01038 c -0.607398,0.03586 -0.6653,0.0451 -0.803882,0.128395 -0.149081,0.0896 -0.321617,0.265292 -0.412025,0.419561 -0.01843,0.03144 -0.02628,0.04037 -0.02628,0.02988 z"
     id="path4792"
     inkscape:connector-curvature="0" />
  <path
     style="fill:#656273;fill-opacity:1;stroke-width:0.0078125;paint-order:fill markers stroke"
     d="m 22.426074,12.892718 c 0.0041,-0.0037 0.04525,-0.03215 0.09148,-0.06331 0.1987,-0.133923 0.329897,-0.303721 0.399389,-0.516897 0.03916,-0.120118 0.04791,-0.180972 0.04704,-0.327206 -7.99e-4,-0.135419 -0.0131,-0.228038 -0.04331,-0.32607 -0.02357,-0.07648 -0.03768,-0.100265 -0.10087,-0.170024 -0.25092,-0.276996 -1.459832,-1.5074322 -3.33454,-3.3939091 -0.482856,-0.4858872 -0.874826,-0.8834313 -0.871044,-0.8834313 0.0038,0 0.937238,0.9307617 2.074347,2.0683593 1.447451,1.4480721 2.081344,2.0873031 2.11373,2.1315261 0.127208,0.173707 0.19144,0.369308 0.19091,0.581365 -5.33e-4,0.213277 -0.0553,0.390278 -0.178324,0.576304 -0.07782,0.117676 -0.220079,0.246161 -0.340148,0.307216 -0.04461,0.02269 -0.0627,0.02866 -0.04866,0.01608 z"
     id="path4794"
     inkscape:connector-curvature="0" />
  <path
     style="fill:#656273;fill-opacity:1;stroke-width:0.0078125;paint-order:fill markers stroke"
     d="m 18.157023,11.515745 c 0.03627,-0.05351 0.101313,-0.134064 0.149825,-0.185547 l 0.08573,-0.09098 -0.0891,0.08984 c -0.04901,0.04941 -0.106329,0.114453 -0.12738,0.144531 -0.04601,0.06573 -0.05119,0.072 -0.05119,0.06188 0,-0.0042 0.021,-0.04012 0.04667,-0.07982 0.02567,-0.03969 0.04764,-0.07448 0.04883,-0.0773 0.0012,-0.0028 0.03822,-0.03977 0.08229,-0.08211 0.07562,-0.07265 0.166417,-0.13907 0.242887,-0.177687 0.05246,-0.02649 0.04646,-0.01394 -0.0088,0.01837 -0.02716,0.01588 -0.05975,0.03771 -0.07244,0.04851 -0.01268,0.0108 -0.002,0.0058 0.02381,-0.01104 0.0696,-0.04554 0.125903,-0.07275 0.191407,-0.09248 0.03223,-0.0097 0.05308,-0.01784 0.04634,-0.01807 -0.0067,-2.31e-4 -0.03082,0.0051 -0.05351,0.01183 -0.06241,0.01853 -0.05682,0.0073 0.0065,-0.01313 0.03043,-0.0098 0.05533,-0.02085 0.05533,-0.02456 0,-0.0037 0.0034,-0.0046 0.0076,-0.0021 0.0042,0.0026 0.02789,-0.001 0.05274,-0.008 0.02484,-0.007 0.05695,-0.01225 0.07135,-0.01173 0.0144,5.18e-4 0.03022,-0.0018 0.03516,-0.0052 0.0049,-0.0034 0.09686,-0.0044 0.204285,-0.0023 l 0.195312,0.0039 -0.128906,0.0069 c -0.0709,0.0038 -0.12422,0.0086 -0.118493,0.01063 0.0118,0.0042 0.54233,-0.0216 0.547853,-0.02665 0.002,-0.0018 -1.236411,-1.2432629 -2.751953,-2.7588099 L 14.093652,5.489206 V 5.1005383 4.7118706 h 1.002575 1.002576 l 1.913489,1.9160156 c 2.669575,2.6731001 4.329055,4.3528688 4.760332,4.8185348 0.05761,0.06221 0.108143,0.112083 0.112287,0.110833 0.0041,-0.0013 0.0054,0.0034 0.0027,0.01033 -0.0027,0.0069 -0.0012,0.01938 0.0032,0.02766 0.0079,0.01485 -0.02447,0.01506 -2.39492,0.01506 h -2.402979 z m 0.264754,-0.292156 c 0.01009,-0.01074 0.01659,-0.01953 0.01444,-0.01953 -0.0021,0 -0.01216,0.0088 -0.02225,0.01953 -0.01009,0.01074 -0.01659,0.01953 -0.01444,0.01953 0.0021,0 0.01216,-0.0088 0.02225,-0.01953 z m 0.353664,-0.16528 c -0.0053,-0.0021 -0.01584,-0.0023 -0.02344,-2.9e-4 -0.0076,0.002 -0.0033,0.0037 0.0096,0.0039 0.01289,1.59e-4 0.01911,-0.0015 0.01382,-0.0036 z m 0.05854,-0.0081 c -0.0075,-0.002 -0.02153,-0.002 -0.03125,-1.58e-4 -0.0097,0.0019 -0.0036,0.0035 0.01358,0.0036 0.01719,8.7e-5 0.02514,-0.0014 0.01767,-0.0034 z m 0.07413,-0.008 c -0.0097,-0.0019 -0.02549,-0.0019 -0.03516,0 -0.0097,0.0019 -0.0018,0.0034 0.01758,0.0034 0.01934,0 0.02725,-0.0015 0.01758,-0.0034 z m 0.105609,-0.0079 c -0.01174,-0.0018 -0.03283,-0.0018 -0.04687,-7.9e-5 -0.01404,0.0017 -0.0044,0.0032 0.02134,0.0032 0.02578,4.7e-5 0.03727,-0.0014 0.02553,-0.0032 z"
     id="path4796"
     inkscape:connector-curvature="0" />
  <path
     style="fill:#656273;fill-opacity:1;stroke-width:0.0078125;paint-order:fill markers stroke"
     d="m 18.148132,11.528586 c 0.03016,-0.04495 0.06614,-0.09505 0.07997,-0.111328 0.0196,-0.02309 0.0206,-0.02556 0.0045,-0.01121 -0.01134,0.01012 -0.03914,0.0443 -0.06178,0.07595 -0.02264,0.03166 -0.04276,0.05596 -0.04471,0.05401 -0.002,-0.0019 0.01502,-0.03261 0.0377,-0.06814 0.02269,-0.03553 0.04518,-0.07104 0.04999,-0.07891 0.01797,-0.02942 0.148706,-0.151282 0.206757,-0.192719 0.0642,-0.04583 0.156123,-0.09769 0.162266,-0.09154 0.002,0.002 -0.0149,0.01436 -0.03766,0.02738 -0.02276,0.01302 -0.0484,0.0296 -0.057,0.03685 -0.0086,0.0072 -0.0033,0.0057 0.01172,-0.0035 0.05921,-0.03614 0.133898,-0.07098 0.179123,-0.08355 0.02611,-0.0073 0.04597,-0.0147 0.04413,-0.01654 -0.0018,-0.0018 -0.02332,0.0025 -0.04773,0.0096 -0.05676,0.0165 -0.06494,0.01014 -0.01001,-0.0078 0.02284,-0.0075 0.04855,-0.01724 0.05715,-0.02175 0.0086,-0.0045 0.02403,-0.0091 0.0343,-0.01026 0.01027,-0.0011 0.02433,-0.0045 0.03125,-0.0074 0.0069,-0.0029 0.03367,-0.0069 0.05945,-0.0089 0.02578,-0.002 0.05039,-0.0059 0.05469,-0.0088 0.0043,-0.0028 0.09394,-0.0033 0.199219,-10e-4 0.105273,0.0023 0.165039,0.0054 0.132812,0.0069 -0.03223,0.0015 -0.0832,0.0054 -0.113281,0.0087 -0.04852,0.0053 -0.04588,0.0056 0.02344,0.0031 0.194142,-0.007 0.457032,-0.02196 0.457032,-0.02609 0,-0.0025 -1.239258,-1.2438016 -2.753907,-2.7584454 l -2.753906,-2.753898 v -0.388676 -0.388676 h 1.002732 1.002732 l 1.928908,1.9317635 c 2.345115,2.3485851 4.038791,4.0603319 4.573942,4.6227419 0.199732,0.209906 0.276067,0.287673 0.237905,0.24237 C 22.728038,11.375985 21.015349,9.6268048 20.254389,8.8681759 20.140202,8.7543391 20.046777,8.6576645 20.046777,8.6533434 c 0,-0.00986 1.896826,1.8852156 2.393232,2.3910236 0.315392,0.321366 0.37398,0.384672 0.406609,0.439356 0.02097,0.03514 0.03939,0.07476 0.04094,0.08804 0.0015,0.01328 0.0048,0.02739 0.0073,0.03135 0.0027,0.0044 -0.935424,0.0072 -2.398532,0.0072 h -2.402979 z m 0.152551,-0.191715 c 0.02551,-0.02578 0.04463,-0.04687 0.04248,-0.04687 -0.0021,0 -0.02478,0.02109 -0.05029,0.04687 -0.02551,0.02578 -0.04463,0.04687 -0.04248,0.04687 0.0021,0 0.02478,-0.02109 0.05029,-0.04687 z m 0.122091,-0.115235 c 0.0097,-0.01239 0.0094,-0.01267 -0.003,-0.0029 -0.0075,0.0059 -0.01367,0.01205 -0.01367,0.01367 0,0.0064 0.0064,0.0023 0.01662,-0.01072 z m 0.34845,-0.162923 c -0.0026,-0.0026 -0.0093,-0.0029 -0.01497,-6.16e-4 -0.0062,0.0025 -0.0044,0.0043 0.0047,0.0047 0.0082,3.39e-4 0.01285,-0.0015 0.01025,-0.0041 z m 0.05876,-0.0083 c -0.0054,-0.0022 -0.01416,-0.0022 -0.01953,0 -0.0054,0.0022 -9.77e-4,0.0039 0.0098,0.0039 0.01074,0 0.01514,-0.0018 0.0098,-0.0039 z m 0.07031,-0.0078 c -0.0054,-0.0022 -0.01416,-0.0022 -0.01953,0 -0.0054,0.0022 -9.76e-4,0.0039 0.0098,0.0039 0.01074,0 0.01514,-0.0018 0.0098,-0.0039 z m 0.101711,-0.0078 c -0.0053,-0.0021 -0.01584,-0.0023 -0.02344,-2.9e-4 -0.0076,0.002 -0.0033,0.0037 0.0096,0.0039 0.01289,1.6e-4 0.01911,-0.0015 0.01382,-0.0036 z"
     id="path4798"
     inkscape:connector-curvature="0" />
  <path
     style="fill:#656273;fill-opacity:1;stroke-width:0.0078125;paint-order:fill markers stroke"
     d="m 18.151871,11.523398 c 0.03245,-0.0478 0.05403,-0.08278 0.04795,-0.07774 -0.0061,0.005 -0.02425,0.02834 -0.04038,0.05176 -0.04532,0.0658 -0.04193,0.043 0.0044,-0.02955 0.02269,-0.03553 0.04518,-0.07104 0.04999,-0.07891 0.01797,-0.02942 0.148706,-0.151282 0.206757,-0.192719 0.06584,-0.047 0.156172,-0.09764 0.162637,-0.09117 0.0022,0.0022 -0.0068,0.0097 -0.02008,0.01658 -0.01329,0.0069 -0.02416,0.01421 -0.02416,0.01631 0,0.0021 0.02021,-0.0064 0.04492,-0.01884 0.02471,-0.01247 0.05989,-0.02714 0.07818,-0.03261 0.01829,-0.0055 0.03171,-0.0115 0.02982,-0.01338 -0.0019,-0.0019 -0.01621,7.83e-4 -0.03182,0.0059 -0.01562,0.0052 -0.03015,0.0076 -0.0323,0.0055 -0.0021,-0.0021 0.0095,-0.0083 0.02592,-0.01373 0.0164,-0.0054 0.04212,-0.0151 0.05716,-0.02154 0.01504,-0.0064 0.03574,-0.01273 0.04601,-0.01398 0.01027,-0.0012 0.02433,-0.0046 0.03125,-0.0076 0.0069,-0.0029 0.0318,-0.0069 0.0553,-0.0089 0.0235,-0.002 0.0481,-0.0059 0.05469,-0.0088 0.0066,-0.0029 0.09634,-0.0034 0.199469,-0.0011 0.103125,0.0023 0.161426,0.0049 0.129558,0.0059 -0.03187,9.56e-4 -0.05565,0.004 -0.05284,0.0068 0.0078,0.0078 0.411492,-0.01428 0.416776,-0.02283 0.0026,-0.0041 -1.233314,-1.2454944 -2.746376,-2.7585787 L 14.093652,5.489184 V 5.1005273 4.7118706 h 1.001977 1.001977 l 1.742367,1.7441406 c 2.859973,2.8628842 4.159158,4.1761878 4.9134,4.9667968 0.05124,0.05371 0.08154,0.08359 0.06733,0.06641 C 22.731316,11.381071 20.914434,9.5257969 20.230961,8.8447454 20.12966,8.7438031 20.046777,8.6576753 20.046777,8.6533501 c 0,-0.00944 1.94868,1.9369279 2.417919,2.4150509 0.181906,0.18535 0.343843,0.356737 0.359859,0.38086 0.01602,0.02412 0.03272,0.04386 0.03713,0.04386 0.0044,0 0.0058,0.0022 0.0031,0.0049 -0.0027,0.0027 0.0024,0.01913 0.01129,0.03656 0.0089,0.01743 0.01685,0.0416 0.01769,0.05372 l 0.0015,0.02203 h -2.401233 -2.401233 z m 0.07559,-0.106449 c 0.0097,-0.01239 0.0094,-0.01267 -0.003,-0.003 -0.0075,0.0059 -0.01367,0.01205 -0.01367,0.01367 0,0.0064 0.0064,0.0023 0.01662,-0.01072 z m 0.0659,-0.07422 0.02295,-0.02539 -0.02539,0.02295 c -0.02367,0.02139 -0.02898,0.02784 -0.02295,0.02784 0.0013,0 0.01277,-0.01143 0.02539,-0.02539 z m 0.23779,-0.197815 c 0,-0.0021 -0.007,-1.43e-4 -0.01563,0.0045 -0.0086,0.0046 -0.01563,0.01012 -0.01563,0.01227 0,0.0021 0.007,1.43e-4 0.01563,-0.0045 0.0086,-0.0046 0.01563,-0.01012 0.01563,-0.01227 z m 0.603516,-0.117906 c -0.0054,-0.0022 -0.01416,-0.0022 -0.01953,0 -0.0054,0.0022 -9.76e-4,0.0039 0.0098,0.0039 0.01074,0 0.01514,-0.0018 0.0098,-0.0039 z"
     id="path4800"
     inkscape:connector-curvature="0" />
  <path
     style="fill:#656273;fill-opacity:1;stroke-width:0.0078125;paint-order:fill markers stroke"
     d="m 17.362862,5.9693621 c -0.69161,-0.6916203 -1.253957,-1.2574915 -1.24966,-1.2574915 0.01021,0 2.516148,2.5059688 2.51104,2.5110768 -0.0021,0.00215 -0.569769,-0.561965 -1.26138,-1.2535853 z"
     id="path4802"
     inkscape:connector-curvature="0" />
  <path
     style="fill:#656273;fill-opacity:1;stroke-width:0.0078125;paint-order:fill markers stroke"
     d="M 15.135783,3.7525588 C 14.600083,3.2206404 14.031695,2.6572615 13.872697,2.5006056 13.624071,2.25564 13.586258,2.2154132 13.602518,2.2131788 c 0.01599,-0.0022 0.212366,0.1908608 1.273458,1.2519532 0.690003,0.6900031 1.249884,1.2545511 1.244179,1.2545511 -0.0057,0 -0.448672,-0.435206 -0.984372,-0.9671243 z"
     id="path4804"
     inkscape:connector-curvature="0" />
  <path
     style="fill:#656273;fill-opacity:1;stroke-width:0.0078125;paint-order:fill markers stroke"
     d="m 14.849287,6.2431243 -2.867176,-2.8671837 -0.990242,0.990219 -0.990242,0.9902192 5.2e-5,-1.3632698 5.2e-5,-1.3632697 0.214157,-0.2089844 0.214157,-0.2089843 h 1.570193 1.570194 l 0.342551,0.3377264 c 1.083502,1.0682433 3.193005,3.1672795 4.496,4.4736941 l 1.498894,1.5028268 V 8.818213 9.1103081 H 18.81217 17.716463 Z"
     id="path4806"
     inkscape:connector-curvature="0" />
  <path
     style="fill:#656273;fill-opacity:1;stroke-width:0.0078125;paint-order:fill markers stroke"
     d=""
     id="path4808"
     inkscape:connector-curvature="0" />
  <path
     style="fill:#656273;fill-opacity:1;stroke-width:0.0078125;paint-order:fill markers stroke"
     d=""
     id="path4810"
     inkscape:connector-curvature="0" />
  <path
     style="fill:#656273;fill-opacity:1;stroke-width:0.0078125;paint-order:fill markers stroke"
     d=""
     id="path4812"
     inkscape:connector-curvature="0" />
  <path
     style="fill:#656273;fill-opacity:1;stroke-width:0.0078125;paint-order:fill markers stroke"
     d=""
     id="path4814"
     inkscape:connector-curvature="0" />
  <path
     style="fill:#656273;fill-opacity:1;stroke-width:0.0078125;paint-order:fill markers stroke"
     d="m 10.001627,2.6050613 c 0,-0.00892 0.266041,-0.279996 0.685547,-0.6985219 0.724502,-0.7228097 0.729157,-0.7270652 0.874085,-0.7990685 0.141003,-0.070053 0.279563,-0.1015201 0.444274,-0.1008956 0.217199,8.235e-4 0.411736,0.06467 0.585271,0.1920848 0.07428,0.054537 1.04967,1.02527 1.022151,1.0172686 -0.01112,-0.00323 -0.01758,-0.00176 -0.01758,0.00403 0,0.00503 -0.148544,-0.136241 -0.330098,-0.3139267 C 12.596053,1.2510631 12.468451,1.1321129 12.402318,1.10158 12.297296,1.053092 12.177992,1.031081 12.022296,1.031467 11.787764,1.0320491 11.58948,1.093747 11.466047,1.2045502 11.361559,1.2983462 11.119329,1.530783 10.717946,1.9224065 10.028454,2.5951334 10.001627,2.6206996 10.001627,2.6050613 Z"
     id="path4816"
     inkscape:connector-curvature="0" />
  <path
     style="fill:#656273;fill-opacity:1;stroke-width:0.0078125;paint-order:fill markers stroke"
     d=""
     id="path4818"
     inkscape:connector-curvature="0" />
  <path
     style="fill:#656273;fill-opacity:1;stroke-width:0.0078125;paint-order:fill markers stroke"
     d="m 11.383466,3.9855913 c 0.57342,-0.5734564 0.601909,-0.6006754 0.615663,-0.5882284 0.01386,0.01254 0.01387,0.013269 3.02e-4,0.01862 -0.0078,0.00306 -0.276024,0.2677656 -0.596131,0.5882284 -0.460589,0.4611023 -0.586086,0.5826596 -0.601543,0.5826596 -0.0158,0 0.09549,-0.1150269 0.581709,-0.6012796 z"
     id="path4820"
     inkscape:connector-curvature="0" />
  <path
     style="fill:#656273;fill-opacity:1;stroke-width:0.0078125;paint-order:fill markers stroke"
     d="M 5.9697063,6.6409324 C 6.8263023,5.7834058 9.1794315,3.4427487 9.8372356,2.7939018 10.435937,2.2033529 11.087132,1.5688553 11.305625,1.3631644 11.501384,1.1788745 11.518429,1.1622232 11.49739,1.1758306 c -0.03884,0.025123 -0.222514,0.2013914 -1.202082,1.153641 -0.134581,0.1308272 -0.248839,0.2393085 -0.253907,0.2410695 -0.02709,0.00941 1.135019,-1.1530337 1.322817,-1.3232044 0.09975,-0.09039 0.214647,-0.1552779 0.347671,-0.1963523 0.02577,-0.00796 0.04862,-0.016323 0.05077,-0.018588 0.0021,-0.00227 0.0127,-0.00447 0.02344,-0.0049 0.01074,-4.307e-4 0.0582,-0.00527 0.105469,-0.010744 0.05725,-0.00664 0.114629,-0.00795 0.171875,-0.00395 0.04727,0.00331 0.09648,0.00638 0.109375,0.00684 0.01289,4.55e-4 0.0252,0.00296 0.02734,0.00556 0.0021,0.0026 0.01797,0.00869 0.03516,0.013533 l 0.03125,0.0088 -0.03125,-0.00388 c -0.01719,-0.00213 -0.05938,-0.00541 -0.09375,-0.00729 l -0.0625,-0.00341 0.06533,0.00748 c 0.0775,0.00888 0.174012,0.032575 0.237129,0.058222 0.02504,0.010173 0.04311,0.0146 0.04017,0.00984 -0.01737,-0.028104 0.136464,0.065825 0.199535,0.1218345 0.08484,0.075342 0.737592,0.719355 0.866941,0.8553356 0.06603,0.06941 0.115244,0.1261933 0.109375,0.1261843 -0.01016,-1.56e-5 -0.119944,-0.10475 -0.695359,-0.6633962 -0.254848,-0.2474212 -0.404962,-0.38704 -0.448124,-0.4167937 -0.01289,-0.00889 -5.86e-4,0.00454 0.02734,0.029843 0.194439,0.1761313 0.707805,0.6753059 1.673828,1.6275579 L 14.864218,3.487943 V 4.8747425 6.2615421 L 13.425903,4.8186213 11.987589,3.3757005 10.052857,5.3051963 8.1181246,7.2346921 6.7470501,7.2350001 5.3759756,7.2353081 Z M 11.682131,1.0900103 c 0.03355,-0.011268 0.09263,-0.027092 0.131306,-0.035165 0.0598,-0.012485 0.06332,-0.013988 0.02352,-0.010061 -0.02574,0.00254 -0.07671,0.013187 -0.113281,0.023662 -0.06427,0.018411 -0.179767,0.067731 -0.179767,0.076765 0,0.00243 0.01738,-0.00438 0.03862,-0.015145 0.02124,-0.010762 0.06606,-0.028787 0.09961,-0.040055 z m 0.266072,-0.055611 c -0.01182,-0.00179 -0.03115,-0.00179 -0.04297,0 -0.01182,0.00179 -0.0021,0.00325 0.02148,0.00325 0.02363,0 0.0333,-0.00146 0.02149,-0.00325 z"
     id="path4822"
     inkscape:connector-curvature="0" />
  <path
     style="fill:#656273;fill-opacity:1;stroke-width:0.0078125;paint-order:fill markers stroke"
     d=""
     id="path4824"
     inkscape:connector-curvature="0" />
  <path
     style="fill:#656273;fill-opacity:1;stroke-width:0.0078125;paint-order:fill markers stroke"
     d="M 9.0861592,3.5094609 C 9.5998159,2.99579 9.9959353,2.6055635 10.001528,2.6077097 10.007189,2.6098818 9.8511138,2.769965 9.6350686,2.983581 9.4280931,3.1882294 9.0196525,3.5940174 8.7274228,3.8853322 8.4351931,4.1766471 8.1926207,4.4149956 8.188373,4.4149956 c -0.00425,0 0.3997561,-0.4074907 0.8977862,-0.9055347 z"
     id="path4826"
     inkscape:connector-curvature="0" />
  <path
     style="fill:#656273;fill-opacity:1;stroke-width:0.0078125;paint-order:fill markers stroke"
     d="M 5.8449316,6.7473499 C 7.1359594,5.4563167 8.1940128,4.4017745 8.1961612,4.403923 c 0.00511,0.00511 -4.6805244,4.6907601 -4.6907406,4.6907601 -0.0043,0 1.0484831,-1.0563 2.339511,-2.3473332 z"
     id="path4828"
     inkscape:connector-curvature="0" />
  <path
     style="fill:#656273;fill-opacity:1;stroke-width:0.0625;paint-order:fill markers stroke"
     d="m 4.5056079,21.850734 c -0.1375,-0.08496 -0.30625,-0.24822 -0.375,-0.36281 C 4.0094661,21.286009 4.0050601,21.151776 3.9878618,17.138954 L 3.9701158,12.998329 H 2.875997 c -0.9650207,0 -1.1225802,-0.01452 -1.3353307,-0.123057 C 1.0533209,12.626647 0.86310031,11.94756 1.1515486,11.486124 1.2225613,11.372524 3.5531502,9.0109919 6.3306352,6.2382739 11.408769,1.1688563 11.593454,0.99832876 12.005608,0.99832876 c 0.410974,0 0.597624,0.17323164 5.765625,5.35111234 l 5.140625,5.1504529 -4.38e-4,0.421092 c -4.37e-4,0.454097 -0.08535,0.648911 -0.385812,0.885256 -0.153595,0.120838 -0.245276,0.129587 -1.357983,0.129587 h -1.193267 l -0.0066,2.921875 c -0.0036,1.607031 -0.02473,3.517318 -0.04687,4.245083 -0.03952,1.29854 -0.04318,1.326362 -0.196518,1.49243 -0.345545,0.374232 0.05863,0.354319 -7.78125,0.383359 l -7.1875001,0.02662 z m 4.4890419,-4.96178 c 0.024604,-3.09419 0.029924,-3.217782 0.1513375,-3.515625 0.035032,-0.08594 0.051274,-0.177344 0.036094,-0.203125 -0.01518,-0.02578 0.00384,-0.04687 0.042277,-0.04687 0.038433,0 0.054316,-0.02518 0.035298,-0.05595 -0.019019,-0.03077 0.011472,-0.07362 0.067757,-0.09522 0.056285,-0.0216 0.086989,-0.05462 0.068231,-0.07338 -0.039872,-0.03987 0.4006494,-0.446184 0.6724647,-0.620242 0.103125,-0.06604 0.271662,-0.130314 0.374526,-0.14284 0.102865,-0.01253 0.201303,-0.04153 0.21875,-0.06445 0.04896,-0.06432 2.681343,-0.05011 2.64151,0.01426 -0.01904,0.03077 0.03988,0.0417 0.130925,0.02429 0.09105,-0.0174 0.165539,-0.0044 0.165539,0.02887 0,0.03329 0.04219,0.04433 0.09375,0.02454 0.05156,-0.01979 0.09375,-0.0071 0.09375,0.02825 0,0.03533 0.02812,0.04685 0.0625,0.0256 0.03437,-0.02125 0.0625,-0.0072 0.0625,0.03125 0,0.03843 0.02812,0.0525 0.0625,0.03125 0.03437,-0.02125 0.0625,-0.0088 0.0625,0.02756 0,0.0364 0.02947,0.06619 0.0655,0.06619 0.08799,0 0.333501,0.275007 0.587107,0.657657 l 0.208045,0.313907 0.04657,3.326718 0.04657,3.326718 h 1.491851 1.491851 V 16.05714 c 0,-2.745307 0.01998,-3.928839 0.06585,-3.900489 0.04343,0.02684 0.061,-0.06572 0.05159,-0.271881 -0.02594,-0.568506 0.362357,-0.886441 1.082617,-0.886441 h 0.39254 L 15.786282,7.2014537 12.005608,3.4045788 10.135139,5.2920362 c -1.0287574,1.0381015 -1.8889417,1.87604 -1.9115211,1.862085 -0.022579,-0.013955 -0.1640681,0.099971 -0.31442,0.2531675 -0.1503513,0.1531969 -0.2466156,0.27854 -0.21392,0.27854 0.032695,0 -0.685469,0.7453125 -1.59592,1.65625 L 4.4439924,10.998329 h 0.3972981 c 0.4648829,0 0.7772748,0.144739 0.9935159,0.460323 l 0.1395515,0.203662 v 4.168007 4.168008 H 7.4721416 8.9699248 Z M 7.9431079,7.4358287 c 0.134265,-0.1375 0.2581812,-0.25 0.2753687,-0.25 0.017187,0 -0.078604,0.1125 -0.2128687,0.25 -0.134265,0.1375 -0.2581813,0.25 -0.2753688,0.25 -0.017188,0 0.078604,-0.1125 0.2128688,-0.25 z m 5.0312501,9.5625003 v -3 h -1 -1 v 3 3 h 1 1 z"
     id="path4832"
     inkscape:connector-curvature="0" />
</svg>
