<svg xmlns="http://www.w3.org/2000/svg" xmlns:xlink="http://www.w3.org/1999/xlink" width="24" height="24" viewBox="0 0 24 24">
    <defs>
        <path id="a" d="M6.456 5.042a1 1 0 0 1-1.387 1.44L.597 2.18A1 1 0 0 1 1.984.738l4.472 4.304z"/>
        <path id="c" d="M4.586 6L.293 1.707A1 1 0 1 1 1.707.293l5 5a1 1 0 0 1 0 1.414l-5 5a1 1 0 1 1-1.414-1.414L4.586 6z"/>
    </defs>
    <g fill="none" fill-rule="evenodd">
        <g transform="matrix(-1 0 0 1 16 7)">
            <mask id="b" fill="#fff">
                <use xlink:href="#a"/>
            </mask>
            <use fill="#D8D8D8" fill-rule="nonzero" xlink:href="#a"/>
            <g fill="#916BFF" fill-opacity=".5" mask="url(#b)">
                <path d="M-8-7h24v24H-8z"/>
            </g>
        </g>
        <g transform="matrix(-1 0 0 1 15 6)">
            <mask id="d" fill="#fff">
                <use xlink:href="#c"/>
            </mask>
            <use fill="#000" fill-rule="nonzero" xlink:href="#c"/>
            <g fill="#7461FC" mask="url(#d)">
                <path d="M-9-6h24v24H-9z"/>
            </g>
        </g>
    </g>
</svg>
