<svg xmlns="http://www.w3.org/2000/svg" xmlns:xlink="http://www.w3.org/1999/xlink" width="24" height="24" viewBox="0 0 24 24">
    <defs>
        <path id="a" d="M4.293.293a1 1 0 1 1 1.414 1.414L1.91 5.461A1 1 0 0 1 .495 4.047L4.293.293z"/>
        <path id="c" d="M10.707 13.293a1 1 0 0 1-1.414 1.414l-9-9a1 1 0 0 1 0-1.414l4-4a1 1 0 1 1 1.414 1.414L2.414 5l8.293 8.293z"/>
    </defs>
    <g fill="none" fill-rule="evenodd">
        <g transform="rotate(-90 11 6)">
            <mask id="b" fill="#fff">
                <use xlink:href="#a"/>
            </mask>
            <use fill="#D8D8D8" fill-rule="nonzero" xlink:href="#a"/>
            <g fill="#916BFF" fill-opacity=".5" mask="url(#b)">
                <path d="M-7-5h24v24H-7z"/>
            </g>
        </g>
        <g transform="rotate(-90 11 7)">
            <mask id="d" fill="#fff">
                <use xlink:href="#c"/>
            </mask>
            <use fill="#000" fill-rule="nonzero" xlink:href="#c"/>
            <g fill="#7461FC" mask="url(#d)">
                <path d="M-6-4h24v24H-6z"/>
            </g>
        </g>
    </g>
</svg>
