<svg xmlns="http://www.w3.org/2000/svg" xmlns:xlink="http://www.w3.org/1999/xlink" width="24" height="24" viewBox="0 0 24 24">
    <defs>
        <path id="a" d="M0 6.131h20.074L16.595 0H3.946z"/>
        <path id="c" d="M19.44 6L17 2H5L2.56 6h16.88zm-.245 2H2.805L11 19l8.195-11zM5 0h12a2 2 0 0 1 1.708.959l3 4.92a2 2 0 0 1-.06 2.174l-9 12.08a2 2 0 0 1-3.296 0l-9-12.08a2 2 0 0 1-.06-2.175l3-4.92A2 2 0 0 1 5 0z"/>
    </defs>
    <g fill="none" fill-rule="evenodd">
        <g transform="translate(2 3)">
            <mask id="b" fill="#fff">
                <use xlink:href="#a"/>
            </mask>
            <use fill="#D8D8D8" xlink:href="#a"/>
            <g fill="#916BFF" fill-opacity=".5" mask="url(#b)">
                <path d="M-2-3h24v24H-2z"/>
            </g>
        </g>
        <g transform="translate(1 2)">
            <mask id="d" fill="#fff">
                <use xlink:href="#c"/>
            </mask>
            <use fill="#000" fill-rule="nonzero" xlink:href="#c"/>
            <g fill="#7461FC" mask="url(#d)">
                <path d="M-1-2h24v24H-1z"/>
            </g>
        </g>
    </g>
</svg>
