<svg xmlns="http://www.w3.org/2000/svg" width="48" height="48" viewBox="0 0 48 48">
    <g fill="none" fill-rule="evenodd">
        <path fill="none" d="M0 0h48v48H0z"/>
        <path fill="#7461FC" fill-rule="nonzero" d="M8.5 31a6.5 6.5 0 1 0 0-13 6.5 6.5 0 0 0 0 13zm0-4a2.5 2.5 0 1 1 0-5 2.5 2.5 0 0 1 0 5zM23.5 31a6.5 6.5 0 1 0 0-13 6.5 6.5 0 0 0 0 13zm0-4a2.5 2.5 0 1 1 0-5 2.5 2.5 0 0 1 0 5zM38.5 31a6.5 6.5 0 1 0 0-13 6.5 6.5 0 0 0 0 13zm0-4a2.5 2.5 0 1 1 0-5 2.5 2.5 0 0 1 0 5z"/>
    </g>
</svg>
