<svg xmlns="http://www.w3.org/2000/svg" xmlns:xlink="http://www.w3.org/1999/xlink" width="24" height="24" viewBox="0 0 24 24">
    <defs>
        <path id="a" d="M0 6l2 2h4v2l-1 2 3 2 6-6L6 .113z"/>
        <path id="c" d="M2.496 9.163V7.258c0-1.052.853-1.904 1.905-1.904h15.24c1.052 0 1.904.852 1.904 1.904v1.905a1.905 1.905 0 0 1-1.904 1.905.952.952 0 1 0 0 1.905c1.052 0 1.904.853 1.904 1.905v1.905a1.905 1.905 0 0 1-1.904 1.905H4.4a1.905 1.905 0 0 1-1.905-1.905v-1.905c0-1.052.853-1.905 1.905-1.905a.952.952 0 0 0 0-1.905 1.905 1.905 0 0 1-1.905-1.905zm1.905 0a2.857 2.857 0 0 1 0 5.715v1.905h15.24v-1.905a2.857 2.857 0 1 1 0-5.715V7.258H4.4v1.905zm6.667.019c0-.536.427-.971.953-.971s.952.435.952.971v5.678a.962.962 0 0 1-.952.97.962.962 0 0 1-.953-.97V9.182z"/>
    </defs>
    <g fill="none" fill-rule="evenodd">
        <g transform="translate(2 8)">
            <mask id="b" fill="#fff">
                <use xlink:href="#a"/>
            </mask>
            <use fill="#D8D8D8" xlink:href="#a"/>
            <g fill="#916BFF" fill-opacity=".5" mask="url(#b)">
                <path d="M-2-8h24v24H-2z"/>
            </g>
        </g>
        <mask id="d" fill="#fff">
            <use xlink:href="#c"/>
        </mask>
        <use fill="#000" fill-rule="nonzero" transform="rotate(-45 12.02 12.02)" xlink:href="#c"/>
        <g fill="#7461FC" mask="url(#d)">
            <path d="M0 0h24v24H0z"/>
        </g>
    </g>
</svg>
